…
# read in the data with readr::read_csv
dat_wide <- path_dat %>%
  readr::read_csv(., na = "-99", col_types = readr::cols()) %>%
  dplyr::rename_with(
    insert_underscore,
    dplyr::starts_with(c("ag", "an", "r"))
  ) %>%
  dplyr::mutate(
    gen = forcats::fct_recode(as.factor(gen), female = "0", male = "1")
  ) %>%
  print(.)
```

```
## # A tibble: 405 x 17
##       id gen   momage homecog homeemo  an_1  an_2  an_3  an_4   r_1   r_2   r_3
##    <dbl> <fct>  <dbl>   <dbl>   <dbl> <dbl> <dbl> <dbl> <dbl> <dbl> <dbl> <dbl>
##  1     1 male      27       7      11     1     0     1     0    27    49    50
##  2     2 male      27      10       7     1     1     0     1    31    47    56
##  3     3 fema~     27       7       7     5     0     5     3    36    52    60
##  4     4 male      24       8       8     1     1    NA    NA    18    30    NA
##  5     5 male      26       8       8     2     3     3     1    23    49    NA
##  6     6 fema~     25       6      11     1     0     0     0    21    NA    45
##  7     7 fema~     22       5       5     3    NA     0    10    21    NA    48
##  8     8 fema~     23       1       4     0    NA     0     4    13    NA    37
##  9     9 fema~     24       3       7     5     3     2     0    29    NA    35
## 10    10 fema~     28       9      11     2     3     6     5    45    58    76
## # ... with 395 more rows, and 5 more variables: r_4 <dbl>, ag_1 <dbl>,
## #   ag_2 <dbl>, ag_3 <dbl>, ag_4 <dbl>
```
…
```
## # A tibble: 1,620 x 9
##    person_id assigned_sex mom_age home_cog home_emo  wave anti_score read_score
##        <dbl> <fct>          <dbl>    <dbl>    <dbl> <dbl>      <dbl>      <dbl>
##  1         1 male              27        7       11     0          1         27
##  2         1 male              27        7       11     1          0         49
##  3         1 male              27        7       11     2          1         50
##  4         1 male              27        7       11     3          0         NA
##  5         2 male              27       10        7     0          1         31
##  6         2 male              27       10        7     1          1         47
##  7         2 male              27       10        7     2          0         56
##  8         2 male              27       10        7     3          1         64
##  9         3 female            27        7        7     0          5         36
## 10         3 female            27        7        7     1          0         52
## # ... with 1,610 more rows, and 1 more variable: child_age <dbl>
```
…
```
## Joining, by = c("person_id", "child_age", "anti_score")
```

```
## # A tibble: 4,050 x 6
##    person_id child_age  wave anti_score anti_miss fill_pal
##        <dbl>     <dbl> <dbl>      <dbl>     <dbl>    <dbl>
##  1         1         6     0          1         0        0
##  2         5         6     0          2         0        0
##  3         6         6     0          1         0        0
##  4         8         6     0          0         0        0
##  5        11         6     0          1         0        0
##  6        14         6     0          2         0        0
##  7        17         6     0          2         0        0
##  8        23         6     0          0         0        0
##  9        26         6     0          1         0        0
## 10        29         6     0          1         0        0
## # ... with 4,040 more rows
```
…
